%YAML 1.1
%TAG !u! tag:unity3d.com,2011:
--- !u!74 &7400000
AnimationClip:
  m_ObjectHideFlags: 0
  m_PrefabParentObject: {fileID: 0}
  m_PrefabInternal: {fileID: 0}
  m_Name: Baloon_game_character_face
  serializedVersion: 6
  m_Legacy: 0
  m_Compressed: 0
  m_UseHighQualityCurve: 1
  m_RotationCurves:
  - curve:
      serializedVersion: 2
      m_Curve:
      - time: 0
        value: {x: 0, y: 0, z: .0533736758, w: .998574615}
        inSlope: {x: 0, y: 0, z: -.157899141, w: .00791788101}
        outSlope: {x: 0, y: 0, z: -.157899141, w: .00791788101}
        tangentMode: 0
      - time: .0416666679
        value: {x: 0, y: 0, z: .0467945449, w: .998904526}
        inSlope: {x: 0, y: 0, z: -.163919091, w: .00763750076}
        outSlope: {x: 0, y: 0, z: -.163919091, w: .00763750076}
        tangentMode: 0
      - time: .0833333358
        value: {x: 0, y: 0, z: .0397137515, w: .999211073}
        inSlope: {x: 0, y: 0, z: -.175060689, w: .00692081451}
        outSlope: {x: 0, y: 0, z: -.175060689, w: .00692081451}
        tangentMode: 0
      - time: .125
        value: {x: 0, y: 0, z: .0322061554, w: .999481261}
        inSlope: {x: 0, y: 0, z: -.184403181, w: .00591015816}
        outSlope: {x: 0, y: 0, z: -.184403181, w: .00591015816}
        tangentMode: 0
      - time: .166666672
        value: {x: 0, y: 0, z: .0243468191, w: .999703586}
        inSlope: {x: 0, y: 0, z: -.191941917, w: .00464773132}
        outSlope: {x: 0, y: 0, z: -.191941917, w: .00464773132}
        tangentMode: 0
      - time: .208333343
        value: {x: 0, y: 0, z: .0162109938, w: .999868572}
        inSlope: {x: 0, y: 0, z: -.197672725, w: .0031850338}
        outSlope: {x: 0, y: 0, z: -.197672725, w: .0031850338}
        tangentMode: 0
      - time: .25
        value: {x: 0, y: 0, z: .00787409209, w: .999969006}
        inSlope: {x: 0, y: 0, z: -.201592371, w: .00157499348}
        outSlope: {x: 0, y: 0, z: -.201592371, w: .00157499348}
        tangentMode: 0
      - time: .291666657
        value: {x: 0, y: 0, z: -.000588367169, w: .999999821}
        inSlope: {x: 0, y: 0, z: -.203698605, w: -.000125169783}
        outSlope: {x: 0, y: 0, z: -.203698605, w: -.000125169783}
        tangentMode: 0
      - time: .333333313
        value: {x: 0, y: 0, z: -.00910078734, w: .999958575}
        inSlope: {x: 0, y: 0, z: -.203990251, w: -.00185394334}
        outSlope: {x: 0, y: 0, z: -.203990251, w: -.00185394334}
        tangentMode: 0
      - time: .37499997
        value: {x: 0, y: 0, z: -.01758755, w: .999845326}
        inSlope: {x: 0, y: 0, z: -.202467382, w: -.00355124567}
        outSlope: {x: 0, y: 0, z: -.202467382, w: -.00355124567}
        tangentMode: 0
      - time: .416666627
        value: {x: 0, y: 0, z: -.0259730648, w: .999662638}
        inSlope: {x: 0, y: 0, z: -.199131623, w: -.00515627954}
        outSlope: {x: 0, y: 0, z: -.199131623, w: -.00515627954}
        tangentMode: 0
      - time: .458333284
        value: {x: 0, y: 0, z: -.0341818482, w: .999415636}
        inSlope: {x: 0, y: 0, z: -.193985641, w: -.00661039539}
        outSlope: {x: 0, y: 0, z: -.193985641, w: -.00661039539}
        tangentMode: 0
      - time: .49999994
        value: {x: 0, y: 0, z: -.0421385318, w: .999111772}
        inSlope: {x: 0, y: 0, z: -.187032908, w: -.0078577986}
        outSlope: {x: 0, y: 0, z: -.187032908, w: -.0078577986}
        tangentMode: 0
      - time: .541666627
        value: {x: 0, y: 0, z: -.0497679263, w: .998760819}
        inSlope: {x: 0, y: 0, z: -.178278118, w: -.00884770975}
        outSlope: {x: 0, y: 0, z: -.178278118, w: -.00884770975}
        tangentMode: 0
      - time: .583333313
        value: {x: 0, y: 0, z: -.0569950491, w: .998374462}
        inSlope: {x: 0, y: 0, z: -.167726308, w: -.00953506958}
        outSlope: {x: 0, y: 0, z: -.167726308, w: -.00953506958}
        tangentMode: 0
      - time: .625
        value: {x: 0, y: 0, z: -.0637451261, w: .99796623}
        inSlope: {x: 0, y: 0, z: -.155382529, w: -.00988196861}
        outSlope: {x: 0, y: 0, z: -.155382529, w: -.00988196861}
        tangentMode: 0
      - time: .666666687
        value: {x: 0, y: 0, z: -.0699435994, w: .997550964}
        inSlope: {x: 0, y: 0, z: -.141252041, w: -.00985979568}
        outSlope: {x: 0, y: 0, z: -.141252041, w: -.00985979568}
        tangentMode: 0
      - time: .708333373
        value: {x: 0, y: 0, z: -.0755161345, w: .99714458}
        inSlope: {x: 0, y: 0, z: -.12533921, w: -.00944852363}
        outSlope: {x: 0, y: 0, z: -.12533921, w: -.00944852363}
        tangentMode: 0
      - time: .75000006
        value: {x: 0, y: 0, z: -.0803885385, w: .996763587}
        inSlope: {x: 0, y: 0, z: -.107647553, w: -.00863957033}
        outSlope: {x: 0, y: 0, z: -.107647553, w: -.00863957033}
        tangentMode: 0
      - time: .791666746
        value: {x: 0, y: 0, z: -.0844867676, w: .996424615}
        inSlope: {x: 0, y: 0, z: -.0881793648, w: -.00743865594}
        outSlope: {x: 0, y: 0, z: -.0881793648, w: -.00743865594}
        tangentMode: 0
      - time: .833333433
        value: {x: 0, y: 0, z: -.0877368227, w: .996143699}
        inSlope: {x: 0, y: 0, z: -.0669347644, w: -.005864379}
        outSlope: {x: 0, y: 0, z: -.0669347644, w: -.005864379}
        tangentMode: 0
      - time: .875000119
        value: {x: 0, y: 0, z: -.0900646672, w: .995935917}
        inSlope: {x: 0, y: 0, z: -.0439120308, w: -.00394892506}
        outSlope: {x: 0, y: 0, z: -.0439120308, w: -.00394892506}
        tangentMode: 0
      - time: .916666806
        value: {x: 0, y: 0, z: -.0913961604, w: .995814621}
        inSlope: {x: 0, y: 0, z: -.0191084053, w: -.00174307742}
        outSlope: {x: 0, y: 0, z: -.0191084053, w: -.00174307742}
        tangentMode: 0
      - time: .958333492
        value: {x: 0, y: 0, z: -.0916570351, w: .99579066}
        inSlope: {x: 0, y: 0, z: .011255905, w: .00102782389}
        outSlope: {x: 0, y: 0, z: .011255905, w: .00102782389}
        tangentMode: 0
      - time: 1.00000012
        value: {x: 0, y: 0, z: -.0904581696, w: .995900273}
        inSlope: {x: 0, y: 0, z: .04896136, w: .00440526428}
        outSlope: {x: 0, y: 0, z: .04896136, w: .00440526428}
        tangentMode: 0
      - time: 1.04166675
        value: {x: 0, y: 0, z: -.0875769258, w: .996157765}
        inSlope: {x: 0, y: 0, z: .0872428641, w: .00760317594}
        outSlope: {x: 0, y: 0, z: .0872428641, w: .00760317594}
        tangentMode: 0
      - time: 1.08333337
        value: {x: 0, y: 0, z: -.0831879377, w: .996533871}
        inSlope: {x: 0, y: 0, z: .121336281, w: .0100472067}
        outSlope: {x: 0, y: 0, z: .121336281, w: .0100472067}
        tangentMode: 0
      - time: 1.125
        value: {x: 0, y: 0, z: -.0774655789, w: .996995032}
        inSlope: {x: 0, y: 0, z: .151244104, w: .0116636865}
        outSlope: {x: 0, y: 0, z: .151244104, w: .0116636865}
        tangentMode: 0
      - time: 1.16666663
        value: {x: 0, y: 0, z: -.0705842748, w: .997505844}
        inSlope: {x: 0, y: 0, z: .176962227, w: .0124347331}
        outSlope: {x: 0, y: 0, z: .176962227, w: .0124347331}
        tangentMode: 0
      - time: 1.20833325
        value: {x: 0, y: 0, z: -.0627187416, w: .998031259}
        inSlope: {x: 0, y: 0, z: .198481113, w: .0123925321}
        outSlope: {x: 0, y: 0, z: .198481113, w: .0123925321}
        tangentMode: 0
      - time: 1.24999988
        value: {x: 0, y: 0, z: -.0540441982, w: .998538554}
        inSlope: {x: 0, y: 0, z: .215788245, w: .0116107576}
        outSlope: {x: 0, y: 0, z: .215788245, w: .0116107576}
        tangentMode: 0
      - time: 1.29166651
        value: {x: 0, y: 0, z: -.044736404, w: .998998821}
        inSlope: {x: 0, y: 0, z: .228870064, w: .0101966951}
        outSlope: {x: 0, y: 0, z: .228870064, w: .0101966951}
        tangentMode: 0
      - time: 1.33333313
        value: {x: 0, y: 0, z: -.0349717103, w: .999388278}
        inSlope: {x: 0, y: 0, z: .237713411, w: .00828553084}
        outSlope: {x: 0, y: 0, z: .237713411, w: .00828553084}
        tangentMode: 0
      - time: 1.37499976
        value: {x: 0, y: 0, z: -.0249269716, w: .999689281}
        inSlope: {x: 0, y: 0, z: .242307365, w: .00603032671}
        outSlope: {x: 0, y: 0, z: .242307365, w: .00603032671}
        tangentMode: 0
      - time: 1.41666639
        value: {x: 0, y: 0, z: -.0147794494, w: .999890804}
        inSlope: {x: 0, y: 0, z: .242644235, w: .00359559408}
        outSlope: {x: 0, y: 0, z: .242644235, w: .00359559408}
        tangentMode: 0
      - time: 1.45833302
        value: {x: 0, y: 0, z: -.00470663793, w: .999988914}
        inSlope: {x: 0, y: 0, z: .238720775, w: .00115370867}
        outSlope: {x: 0, y: 0, z: .238720775, w: .00115370867}
        tangentMode: 0
      - time: 1.49999964
        value: {x: 0, y: 0, z: .00511392998, w: .999986947}
        inSlope: {x: 0, y: 0, z: .230537355, w: -.00112938986}
        outSlope: {x: 0, y: 0, z: .230537355, w: -.00112938986}
        tangentMode: 0
      - time: 1.54166627
        value: {x: 0, y: 0, z: .0145047912, w: .999894798}
        inSlope: {x: 0, y: 0, z: .218098521, w: -.00309777539}
        outSlope: {x: 0, y: 0, z: .218098521, w: -.00309777539}
        tangentMode: 0
      - time: 1.5833329
        value: {x: 0, y: 0, z: .0232887901, w: .999728799}
        inSlope: {x: 0, y: 0, z: .201412037, w: -.00461340416}
        outSlope: {x: 0, y: 0, z: .201412037, w: -.00461340416}
        tangentMode: 0
      - time: 1.62499952
        value: {x: 0, y: 0, z: .0312891118, w: .999510348}
        inSlope: {x: 0, y: 0, z: .180487126, w: -.00556397997}
        outSlope: {x: 0, y: 0, z: .180487126, w: -.00556397997}
        tangentMode: 0
      - time: 1.66666615
        value: {x: 0, y: 0, z: .0383293703, w: .999265134}
        inSlope: {x: 0, y: 0, z: .155333802, w: -.00586939417}
        outSlope: {x: 0, y: 0, z: .155333802, w: -.00586939417}
        tangentMode: 0
      - time: 1.70833278
        value: {x: 0, y: 0, z: .0442335829, w: .999021232}
        inSlope: {x: 0, y: 0, z: .125960544, w: -.00549388491}
        outSlope: {x: 0, y: 0, z: .125960544, w: -.00549388491}
        tangentMode: 0
      - time: 1.7499994
        value: {x: 0, y: 0, z: .0488260724, w: .998807311}
        inSlope: {x: 0, y: 0, z: .0923728645, w: -.00444674911}
        outSlope: {x: 0, y: 0, z: .0923728645, w: -.00444674911}
        tangentMode: 0
      - time: 1.79166603
        value: {x: 0, y: 0, z: .0519313142, w: .99865067}
        inSlope: {x: 0, y: 0, z: .0545710698, w: -.00279236096}
        outSlope: {x: 0, y: 0, z: .0545710698, w: -.00279236096}
        tangentMode: 0
      - time: 1.83333266
        value: {x: 0, y: 0, z: .0533736572, w: .998574615}
        inSlope: {x: 0, y: 0, z: .0150339305, w: -.000791073602}
        outSlope: {x: 0, y: 0, z: .0150339305, w: -.000791073602}
        tangentMode: 0
      - time: 1.87499928
        value: {x: 0, y: 0, z: .0531841405, w: .998584747}
        inSlope: {x: 0, y: 0, z: -.0213781651, w: .00112366781}
        outSlope: {x: 0, y: 0, z: -.0213781651, w: .00112366781}
        tangentMode: 0
      - time: 1.91666591
        value: {x: 0, y: 0, z: .0515921451, w: .998668253}
        inSlope: {x: 0, y: 0, z: -.0535780713, w: .00273299473}
        outSlope: {x: 0, y: 0, z: -.0535780713, w: .00273299473}
        tangentMode: 0
      - time: 1.95833254
        value: {x: 0, y: 0, z: .0487193055, w: .998812497}
        inSlope: {x: 0, y: 0, z: -.0828606188, w: .00399327651}
        outSlope: {x: 0, y: 0, z: -.0828606188, w: .00399327651}
        tangentMode: 0
      - time: 1.99999917
        value: {x: 0, y: 0, z: .0446870998, w: .999001026}
        inSlope: {x: 0, y: 0, z: -.109228104, w: .00482941139}
        outSlope: {x: 0, y: 0, z: -.109228104, w: .00482941139}
        tangentMode: 0
      - time: 2.04166579
        value: {x: 0, y: 0, z: .0396169722, w: .999214947}
        inSlope: {x: 0, y: 0, z: -.132679999, w: .00519990642}
        outSlope: {x: 0, y: 0, z: -.132679999, w: .00519990642}
        tangentMode: 0
      - time: 2.08333254
        value: {x: 0, y: 0, z: .033630427, w: .999434352}
        inSlope: {x: 0, y: 0, z: -.153213233, w: .00509475684}
        outSlope: {x: 0, y: 0, z: -.153213233, w: .00509475684}
        tangentMode: 0
      - time: 2.12499928
        value: {x: 0, y: 0, z: .0268491786, w: .999639511}
        inSlope: {x: 0, y: 0, z: -.170823008, w: .00453042146}
        outSlope: {x: 0, y: 0, z: -.170823008, w: .00453042146}
        tangentMode: 0
      - time: 2.16666603
        value: {x: 0, y: 0, z: .0193951484, w: .999811888}
        inSlope: {x: 0, y: 0, z: -.185503393, w: .0035476617}
        outSlope: {x: 0, y: 0, z: -.185503393, w: .0035476617}
        tangentMode: 0
      - time: 2.20833278
        value: {x: 0, y: 0, z: .0113905324, w: .99993515}
        inSlope: {x: 0, y: 0, z: -.19724828, w: .00220512925}
        outSlope: {x: 0, y: 0, z: -.19724828, w: .00220512925}
        tangentMode: 0
      - time: 2.24999952
        value: {x: 0, y: 0, z: .00295776082, w: .999995649}
        inSlope: {x: 0, y: 0, z: -.206052274, w: .00057792553}
        outSlope: {x: 0, y: 0, z: -.206052274, w: .00057792553}
        tangentMode: 0
      - time: 2.29166627
        value: {x: 0, y: 0, z: -.00578052178, w: .999983311}
        inSlope: {x: 0, y: 0, z: -.211911112, w: -.00124454265}
        outSlope: {x: 0, y: 0, z: -.211911112, w: -.00124454265}
        tangentMode: 0
      - time: 2.33333302
        value: {x: 0, y: 0, z: -.0147015313, w: .999891937}
        inSlope: {x: 0, y: 0, z: -.214822471, w: -.00316500058}
        outSlope: {x: 0, y: 0, z: -.214822471, w: -.00316500058}
        tangentMode: 0
      - time: 2.37499976
        value: {x: 0, y: 0, z: -.0236824285, w: .99971956}
        inSlope: {x: 0, y: 0, z: -.214785472, w: -.00508188223}
        outSlope: {x: 0, y: 0, z: -.214785472, w: -.00508188223}
        tangentMode: 0
      - time: 2.41666651
        value: {x: 0, y: 0, z: -.0326003544, w: .999468446}
        inSlope: {x: 0, y: 0, z: -.211802572, w: -.00688933022}
        outSlope: {x: 0, y: 0, z: -.211802572, w: -.00688933022}
        tangentMode: 0
      - time: 2.45833325
        value: {x: 0, y: 0, z: -.041332677, w: .999145448}
        inSlope: {x: 0, y: 0, z: -.205878407, w: -.00848506205}
        outSlope: {x: 0, y: 0, z: -.205878407, w: -.00848506205}
        tangentMode: 0
      - time: 2.5
        value: {x: 0, y: 0, z: -.0497569218, w: .998761356}
        inSlope: {x: 0, y: 0, z: -.197018743, w: -.00977323577}
        outSlope: {x: 0, y: 0, z: -.197018743, w: -.00977323577}
        tangentMode: 0
      - time: 2.54166675
        value: {x: 0, y: 0, z: -.0577509366, w: .99833101}
        inSlope: {x: 0, y: 0, z: -.185230762, w: -.0106637273}
        outSlope: {x: 0, y: 0, z: -.185230762, w: -.0106637273}
        tangentMode: 0
      - time: 2.58333349
        value: {x: 0, y: 0, z: -.0651928484, w: .99787271}
        inSlope: {x: 0, y: 0, z: -.17052348, w: -.0110828662}
        outSlope: {x: 0, y: 0, z: -.17052348, w: -.0110828662}
        tangentMode: 0
      - time: 2.62500024
        value: {x: 0, y: 0, z: -.0719612539, w: .997407436}
        inSlope: {x: 0, y: 0, z: -.152905196, w: -.0109712873}
        outSlope: {x: 0, y: 0, z: -.152905196, w: -.0109712873}
        tangentMode: 0
      - time: 2.66666698
        value: {x: 0, y: 0, z: -.0779349729, w: .996958435}
        inSlope: {x: 0, y: 0, z: -.132383212, w: -.010288219}
        outSlope: {x: 0, y: 0, z: -.132383212, w: -.010288219}
        tangentMode: 0
      - time: 2.70833373
        value: {x: 0, y: 0, z: -.0829932094, w: .996550083}
        inSlope: {x: 0, y: 0, z: -.108962744, w: -.00901721232}
        outSlope: {x: 0, y: 0, z: -.108962744, w: -.00901721232}
        tangentMode: 0
      - time: 2.75000048
        value: {x: 0, y: 0, z: -.087015219, w: .996206999}
        inSlope: {x: 0, y: 0, z: -.0826464742, w: -.0071704248}
        outSlope: {x: 0, y: 0, z: -.0826464742, w: -.0071704248}
        tangentMode: 0
      - time: 2.79166722
        value: {x: 0, y: 0, z: -.0898804292, w: .995952547}
        inSlope: {x: 0, y: 0, z: -.053434059, w: -.00478791259}
        outSlope: {x: 0, y: 0, z: -.053434059, w: -.00478791259}
        tangentMode: 0
      - time: 2.83333397
        value: {x: 0, y: 0, z: -.091468066, w: .995808005}
        inSlope: {x: 0, y: 0, z: -.0213191397, w: -.00194263097}
        outSlope: {x: 0, y: 0, z: -.0213191397, w: -.00194263097}
        tangentMode: 0
      - time: 2.87500072
        value: {x: 0, y: 0, z: -.0916570276, w: .99579066}
        inSlope: {x: 0, y: 0, z: .0114087546, w: .00104284089}
        outSlope: {x: 0, y: 0, z: .0114087546, w: .00104284089}
        tangentMode: 0
      - time: 2.91666746
        value: {x: 0, y: 0, z: -.0905173346, w: .995894909}
        inSlope: {x: 0, y: 0, z: .0408003442, w: .00368499057}
        outSlope: {x: 0, y: 0, z: .0408003442, w: .00368499057}
        tangentMode: 0
      - time: 2.95833421
        value: {x: 0, y: 0, z: -.0882569924, w: .996097744}
        inSlope: {x: 0, y: 0, z: .0666694865, w: .00587152317}
        outSlope: {x: 0, y: 0, z: .0666694865, w: .00587152317}
        tangentMode: 0
      - time: 3.00000095
        value: {x: 0, y: 0, z: -.0849615335, w: .996384203}
        inSlope: {x: 0, y: 0, z: .0904870108, w: .00767253386}
        outSlope: {x: 0, y: 0, z: .0904870108, w: .00767253386}
        tangentMode: 0
      - time: 3.0416677
        value: {x: 0, y: 0, z: -.0807163939, w: .996737123}
        inSlope: {x: 0, y: 0, z: .112255156, w: .00904224627}
        outSlope: {x: 0, y: 0, z: .112255156, w: .00904224627}
        tangentMode: 0
      - time: 3.08333445
        value: {x: 0, y: 0, z: -.0756069198, w: .997137725}
        inSlope: {x: 0, y: 0, z: .131974086, w: .00995491073}
        outSlope: {x: 0, y: 0, z: .131974086, w: .00995491073}
        tangentMode: 0
      - time: 3.12500119
        value: {x: 0, y: 0, z: -.0697185323, w: .9975667}
        inSlope: {x: 0, y: 0, z: .149640873, w: .01040552}
        outSlope: {x: 0, y: 0, z: .149640873, w: .01040552}
        tangentMode: 0
      - time: 3.16666794
        value: {x: 0, y: 0, z: -.0631368235, w: .998004854}
        inSlope: {x: 0, y: 0, z: .165251434, w: .0104040895}
        outSlope: {x: 0, y: 0, z: .165251434, w: .0104040895}
        tangentMode: 0
      - time: 3.20833468
        value: {x: 0, y: 0, z: -.0559475534, w: .998433709}
        inSlope: {x: 0, y: 0, z: .178800181, w: .00997279212}
        outSlope: {x: 0, y: 0, z: .178800181, w: .00997279212}
        tangentMode: 0
      - time: 3.25000143
        value: {x: 0, y: 0, z: -.0482367799, w: .998835921}
        inSlope: {x: 0, y: 0, z: .190280765, w: .00914810318}
        outSlope: {x: 0, y: 0, z: .190280765, w: .00914810318}
        tangentMode: 0
      - time: 3.29166818
        value: {x: 0, y: 0, z: -.0400907919, w: .999196053}
        inSlope: {x: 0, y: 0, z: .199687004, w: .00797723234}
        outSlope: {x: 0, y: 0, z: .199687004, w: .00797723234}
        tangentMode: 0
      - time: 3.33333492
        value: {x: 0, y: 0, z: -.0315961652, w: .999500692}
        inSlope: {x: 0, y: 0, z: .207012415, w: .00651668292}
        outSlope: {x: 0, y: 0, z: .207012415, w: .00651668292}
        tangentMode: 0
      - time: 3.37500167
        value: {x: 0, y: 0, z: -.022839725, w: .99973911}
        inSlope: {x: 0, y: 0, z: .212251946, w: .00483082794}
        outSlope: {x: 0, y: 0, z: .212251946, w: .00483082794}
        tangentMode: 0
      - time: 3.41666842
        value: {x: 0, y: 0, z: -.0139084691, w: .999903262}
        inSlope: {x: 0, y: 0, z: .215401456, w: .00298690237}
        outSlope: {x: 0, y: 0, z: .215401456, w: .00298690237}
        tangentMode: 0
      - time: 3.45833516
        value: {x: 0, y: 0, z: -.00488956971, w: .999988019}
        inSlope: {x: 0, y: 0, z: .216457844, w: .0010585764}
        outSlope: {x: 0, y: 0, z: .216457844, w: .0010585764}
        tangentMode: 0
      - time: 3.50000191
        value: {x: 0, y: 0, z: .00412971945, w: .999991477}
        inSlope: {x: 0, y: 0, z: .215420038, w: -.000879762869}
        outSlope: {x: 0, y: 0, z: .215420038, w: -.000879762869}
        tangentMode: 0
      - time: 3.54166865
        value: {x: 0, y: 0, z: .0130621353, w: .999914706}
        inSlope: {x: 0, y: 0, z: .212288707, w: -.00275515998}
        outSlope: {x: 0, y: 0, z: .212288707, w: -.00275515998}
        tangentMode: 0
      - time: 3.5833354
        value: {x: 0, y: 0, z: .0218204781, w: .999761879}
        inSlope: {x: 0, y: 0, z: .207065776, w: -.0044925129}
        outSlope: {x: 0, y: 0, z: .207065776, w: -.0044925129}
        tangentMode: 0
      - time: 3.62500215
        value: {x: 0, y: 0, z: .0303176492, w: .999540329}
        inSlope: {x: 0, y: 0, z: .199754775, w: -.00602387218}
        outSlope: {x: 0, y: 0, z: .199754775, w: -.00602387218}
        tangentMode: 0
      - time: 3.66666889
        value: {x: 0, y: 0, z: .0384667404, w: .999259889}
        inSlope: {x: 0, y: 0, z: .190360397, w: -.00728701148}
        outSlope: {x: 0, y: 0, z: .190360397, w: -.00728701148}
        tangentMode: 0
      - time: 3.70833564
        value: {x: 0, y: 0, z: .0461810455, w: .998933077}
        inSlope: {x: 0, y: 0, z: .178887814, w: -.00822352618}
        outSlope: {x: 0, y: 0, z: .178887814, w: -.00822352618}
        tangentMode: 0
      - time: 3.75
        value: {x: 0, y: 0, z: .0533736758, w: .998574615}
        inSlope: {x: 0, y: 0, z: .172632679, w: -.00860357191}
        outSlope: {x: 0, y: 0, z: .172632679, w: -.00860357191}
        tangentMode: 0
      m_PreInfinity: 2
      m_PostInfinity: 2
    path: 
  m_CompressedRotationCurves: []
  m_PositionCurves: []
  m_ScaleCurves:
  - curve:
      serializedVersion: 2
      m_Curve:
      - time: 0
        value: {x: 1, y: 1, z: 1}
        inSlope: {x: 0, y: -22.7505379, z: 0}
        outSlope: {x: 0, y: -22.7505379, z: 0}
        tangentMode: 0
      - time: .0416666679
        value: {x: 1, y: .052060917, z: 1}
        inSlope: {x: 0, y: 0, z: 0}
        outSlope: {x: 0, y: 0, z: 0}
        tangentMode: 0
      - time: .0833333358
        value: {x: 1, y: 1, z: 1}
        inSlope: {x: 0, y: 11.3752689, z: 0}
        outSlope: {x: -0, y: -0, z: -0}
        tangentMode: 0
      - time: 1.83333337
        value: {x: 1, y: 1, z: 1}
        inSlope: {x: 0, y: 0, z: 0}
        outSlope: {x: 0, y: -11.3752642, z: 0}
        tangentMode: 0
      - time: 1.875
        value: {x: 1, y: .052060917, z: 1}
        inSlope: {x: 0, y: 0, z: 0}
        outSlope: {x: 0, y: 0, z: 0}
        tangentMode: 0
      - time: 1.91666663
        value: {x: 1, y: 1, z: 1}
        inSlope: {x: 0, y: 22.7505608, z: 0}
        outSlope: {x: 0, y: 22.7505608, z: 0}
        tangentMode: 0
      m_PreInfinity: 2
      m_PostInfinity: 2
    path: eye (1)
  - curve:
      serializedVersion: 2
      m_Curve:
      - time: 0
        value: {x: 1, y: 1, z: 1}
        inSlope: {x: 0, y: -22.7505379, z: 0}
        outSlope: {x: 0, y: -22.7505379, z: 0}
        tangentMode: 0
      - time: .0416666679
        value: {x: 1, y: .052060917, z: 1}
        inSlope: {x: 0, y: 0, z: 0}
        outSlope: {x: 0, y: 0, z: 0}
        tangentMode: 0
      - time: .0833333358
        value: {x: 1, y: 1, z: 1}
        inSlope: {x: 0, y: 11.3752689, z: 0}
        outSlope: {x: -0, y: -0, z: -0}
        tangentMode: 0
      - time: 1.83333337
        value: {x: 1, y: 1, z: 1}
        inSlope: {x: 0, y: 0, z: 0}
        outSlope: {x: 0, y: -11.3752642, z: 0}
        tangentMode: 0
      - time: 1.875
        value: {x: 1, y: .052060917, z: 1}
        inSlope: {x: 0, y: 0, z: 0}
        outSlope: {x: 0, y: 0, z: 0}
        tangentMode: 0
      - time: 1.91666663
        value: {x: 1, y: 1, z: 1}
        inSlope: {x: 0, y: 22.7505608, z: 0}
        outSlope: {x: 0, y: 22.7505608, z: 0}
        tangentMode: 0
      m_PreInfinity: 2
      m_PostInfinity: 2
    path: eye
  m_FloatCurves: []
  m_PPtrCurves: []
  m_SampleRate: 24
  m_WrapMode: 0
  m_Bounds:
    m_Center: {x: 0, y: 0, z: 0}
    m_Extent: {x: 0, y: 0, z: 0}
  m_ClipBindingConstant:
    genericBindings:
    - path: 0
      attribute: 2
      script: {fileID: 0}
      classID: 4
      customType: 0
      isPPtrCurve: 0
    - path: 731791280
      attribute: 3
      script: {fileID: 0}
      classID: 4
      customType: 0
      isPPtrCurve: 0
    - path: 1920501681
      attribute: 3
      script: {fileID: 0}
      classID: 4
      customType: 0
      isPPtrCurve: 0
    pptrCurveMapping: []
  m_AnimationClipSettings:
    serializedVersion: 2
    m_StartTime: 0
    m_StopTime: 3.75
    m_OrientationOffsetY: 0
    m_Level: 0
    m_CycleOffset: 0
    m_LoopTime: 1
    m_LoopBlend: 0
    m_LoopBlendOrientation: 0
    m_LoopBlendPositionY: 0
    m_LoopBlendPositionXZ: 0
    m_KeepOriginalOrientation: 0
    m_KeepOriginalPositionY: 1
    m_KeepOriginalPositionXZ: 0
    m_HeightFromFeet: 0
    m_Mirror: 0
  m_EditorCurves:
  - curve:
      serializedVersion: 2
      m_Curve:
      - time: 0
        value: 1
        inSlope: 0
        outSlope: 0
        tangentMode: 10
      - time: .0416666679
        value: 1
        inSlope: 0
        outSlope: 0
        tangentMode: 10
      - time: .0833333358
        value: 1
        inSlope: 0
        outSlope: -0
        tangentMode: 17
      - time: 1.83333337
        value: 1
        inSlope: 0
        outSlope: 0
        tangentMode: 5
      - time: 1.875
        value: 1
        inSlope: 0
        outSlope: 0
        tangentMode: 10
      - time: 1.91666663
        value: 1
        inSlope: 0
        outSlope: 0
        tangentMode: 10
      m_PreInfinity: 2
      m_PostInfinity: 2
    attribute: m_LocalScale.x
    path: eye (1)
    classID: 4
    script: {fileID: 0}
  - curve:
      serializedVersion: 2
      m_Curve:
      - time: 0
        value: 1
        inSlope: -22.7505379
        outSlope: -22.7505379
        tangentMode: 10
      - time: .0416666679
        value: .052060917
        inSlope: 0
        outSlope: 0
        tangentMode: 10
      - time: .0833333358
        value: 1
        inSlope: 11.3752689
        outSlope: -0
        tangentMode: 17
      - time: 1.83333337
        value: 1
        inSlope: 0
        outSlope: -11.3752642
        tangentMode: 5
      - time: 1.875
        value: .052060917
        inSlope: 0
        outSlope: 0
        tangentMode: 10
      - time: 1.91666663
        value: 1
        inSlope: 22.7505608
        outSlope: 22.7505608
        tangentMode: 10
      m_PreInfinity: 2
      m_PostInfinity: 2
    attribute: m_LocalScale.y
    path: eye (1)
    classID: 4
    script: {fileID: 0}
  - curve:
      serializedVersion: 2
      m_Curve:
      - time: 0
        value: 1
        inSlope: 0
        outSlope: 0
        tangentMode: 10
      - time: .0416666679
        value: 1
        inSlope: 0
        outSlope: 0
        tangentMode: 10
      - time: .0833333358
        value: 1
        inSlope: 0
        outSlope: -0
        tangentMode: 17
      - time: 1.83333337
        value: 1
        inSlope: 0
        outSlope: 0
        tangentMode: 5
      - time: 1.875
        value: 1
        inSlope: 0
        outSlope: 0
        tangentMode: 10
      - time: 1.91666663
        value: 1
        inSlope: 0
        outSlope: 0
        tangentMode: 10
      m_PreInfinity: 2
      m_PostInfinity: 2
    attribute: m_LocalScale.z
    path: eye (1)
    classID: 4
    script: {fileID: 0}
  - curve:
      serializedVersion: 2
      m_Curve:
      - time: 0
        value: 0
        inSlope: 0
        outSlope: 0
        tangentMode: 0
      - time: .0416666679
        value: 0
        inSlope: 0
        outSlope: 0
        tangentMode: 0
      - time: .0833333358
        value: 0
        inSlope: 0
        outSlope: 0
        tangentMode: 0
      - time: .125
        value: 0
        inSlope: 0
        outSlope: 0
        tangentMode: 0
      - time: .166666672
        value: 0
        inSlope: 0
        outSlope: 0
        tangentMode: 0
      - time: .208333343
        value: 0
        inSlope: 0
        outSlope: 0
        tangentMode: 0
      - time: .25
        value: 0
        inSlope: 0
        outSlope: 0
        tangentMode: 0
      - time: .291666657
        value: 0
        inSlope: 0
        outSlope: 0
        tangentMode: 0
      - time: .333333313
        value: 0
        inSlope: 0
        outSlope: 0
        tangentMode: 0
      - time: .37499997
        value: 0
        inSlope: 0
        outSlope: 0
        tangentMode: 0
      - time: .416666627
        value: 0
        inSlope: 0
        outSlope: 0
        tangentMode: 0
      - time: .458333284
        value: 0
        inSlope: 0
        outSlope: 0
        tangentMode: 0
      - time: .49999994
        value: 0
        inSlope: 0
        outSlope: 0
        tangentMode: 0
      - time: .541666627
        value: 0
        inSlope: 0
        outSlope: 0
        tangentMode: 0
      - time: .583333313
        value: 0
        inSlope: 0
        outSlope: 0
        tangentMode: 0
      - time: .625
        value: 0
        inSlope: 0
        outSlope: 0
        tangentMode: 0
      - time: .666666687
        value: 0
        inSlope: 0
        outSlope: 0
        tangentMode: 0
      - time: .708333373
        value: 0
        inSlope: 0
        outSlope: 0
        tangentMode: 0
      - time: .75000006
        value: 0
        inSlope: 0
        outSlope: 0
        tangentMode: 0
      - time: .791666746
        value: 0
        inSlope: 0
        outSlope: 0
        tangentMode: 0
      - time: .833333433
        value: 0
        inSlope: 0
        outSlope: 0
        tangentMode: 0
      - time: .875000119
        value: 0
        inSlope: 0
        outSlope: 0
        tangentMode: 0
      - time: .916666806
        value: 0
        inSlope: 0
        outSlope: 0
        tangentMode: 0
      - time: .958333492
        value: 0
        inSlope: 0
        outSlope: 0
        tangentMode: 0
      - time: 1.00000012
        value: 0
        inSlope: 0
        outSlope: 0
        tangentMode: 0
      - time: 1.04166675
        value: 0
        inSlope: 0
        outSlope: 0
        tangentMode: 0
      - time: 1.08333337
        value: 0
        inSlope: 0
        outSlope: 0
        tangentMode: 0
      - time: 1.125
        value: 0
        inSlope: 0
        outSlope: 0
        tangentMode: 0
      - time: 1.16666663
        value: 0
        inSlope: 0
        outSlope: 0
        tangentMode: 0
      - time: 1.20833325
        value: 0
        inSlope: 0
        outSlope: 0
        tangentMode: 0
      - time: 1.24999988
        value: 0
        inSlope: 0
        outSlope: 0
        tangentMode: 0
      - time: 1.29166651
        value: 0
        inSlope: 0
        outSlope: 0
        tangentMode: 0
      - time: 1.33333313
        value: 0
        inSlope: 0
        outSlope: 0
        tangentMode: 0
      - time: 1.37499976
        value: 0
        inSlope: 0
        outSlope: 0
        tangentMode: 0
      - time: 1.41666639
        value: 0
        inSlope: 0
        outSlope: 0
        tangentMode: 0
      - time: 1.45833302
        value: 0
        inSlope: 0
        outSlope: 0
        tangentMode: 0
      - time: 1.49999964
        value: 0
        inSlope: 0
        outSlope: 0
        tangentMode: 0
      - time: 1.54166627
        value: 0
        inSlope: 0
        outSlope: 0
        tangentMode: 0
      - time: 1.5833329
        value: 0
        inSlope: 0
        outSlope: 0
        tangentMode: 0
      - time: 1.62499952
        value: 0
        inSlope: 0
        outSlope: 0
        tangentMode: 0
      - time: 1.66666615
        value: 0
        inSlope: 0
        outSlope: 0
        tangentMode: 0
      - time: 1.70833278
        value: 0
        inSlope: 0
        outSlope: 0
        tangentMode: 0
      - time: 1.7499994
        value: 0
        inSlope: 0
        outSlope: 0
        tangentMode: 0
      - time: 1.79166603
        value: 0
        inSlope: 0
        outSlope: 0
        tangentMode: 0
      - time: 1.83333266
        value: 0
        inSlope: 0
        outSlope: 0
        tangentMode: 0
      - time: 1.87499928
        value: 0
        inSlope: 0
        outSlope: 0
        tangentMode: 0
      - time: 1.91666591
        value: 0
        inSlope: 0
        outSlope: 0
        tangentMode: 0
      - time: 1.95833254
        value: 0
        inSlope: 0
        outSlope: 0
        tangentMode: 0
      - time: 1.99999917
        value: 0
        inSlope: 0
        outSlope: 0
        tangentMode: 0
      - time: 2.04166579
        value: 0
        inSlope: 0
        outSlope: 0
        tangentMode: 0
      - time: 2.08333254
        value: 0
        inSlope: 0
        outSlope: 0
        tangentMode: 0
      - time: 2.12499928
        value: 0
        inSlope: 0
        outSlope: 0
        tangentMode: 0
      - time: 2.16666603
        value: 0
        inSlope: 0
        outSlope: 0
        tangentMode: 0
      - time: 2.20833278
        value: 0
        inSlope: 0
        outSlope: 0
        tangentMode: 0
      - time: 2.24999952
        value: 0
        inSlope: 0
        outSlope: 0
        tangentMode: 0
      - time: 2.29166627
        value: 0
        inSlope: 0
        outSlope: 0
        tangentMode: 0
      - time: 2.33333302
        value: 0
        inSlope: 0
        outSlope: 0
        tangentMode: 0
      - time: 2.37499976
        value: 0
        inSlope: 0
        outSlope: 0
        tangentMode: 0
      - time: 2.41666651
        value: 0
        inSlope: 0
        outSlope: 0
        tangentMode: 0
      - time: 2.45833325
        value: 0
        inSlope: 0
        outSlope: 0
        tangentMode: 0
      - time: 2.5
        value: 0
        inSlope: 0
        outSlope: 0
        tangentMode: 0
      - time: 2.54166675
        value: 0
        inSlope: 0
        outSlope: 0
        tangentMode: 0
      - time: 2.58333349
        value: 0
        inSlope: 0
        outSlope: 0
        tangentMode: 0
      - time: 2.62500024
        value: 0
        inSlope: 0
        outSlope: 0
        tangentMode: 0
      - time: 2.66666698
        value: 0
        inSlope: 0
        outSlope: 0
        tangentMode: 0
      - time: 2.70833373
        value: 0
        inSlope: 0
        outSlope: 0
        tangentMode: 0
      - time: 2.75000048
        value: 0
        inSlope: 0
        outSlope: 0
        tangentMode: 0
      - time: 2.79166722
        value: 0
        inSlope: 0
        outSlope: 0
        tangentMode: 0
      - time: 2.83333397
        value: 0
        inSlope: 0
        outSlope: 0
        tangentMode: 0
      - time: 2.87500072
        value: 0
        inSlope: 0
        outSlope: 0
        tangentMode: 0
      - time: 2.91666746
        value: 0
        inSlope: 0
        outSlope: 0
        tangentMode: 0
      - time: 2.95833421
        value: 0
        inSlope: 0
        outSlope: 0
        tangentMode: 0
      - time: 3.00000095
        value: 0
        inSlope: 0
        outSlope: 0
        tangentMode: 0
      - time: 3.0416677
        value: 0
        inSlope: 0
        outSlope: 0
        tangentMode: 0
      - time: 3.08333445
        value: 0
        inSlope: 0
        outSlope: 0
        tangentMode: 0
      - time: 3.12500119
        value: 0
        inSlope: 0
        outSlope: 0
        tangentMode: 0
      - time: 3.16666794
        value: 0
        inSlope: 0
        outSlope: 0
        tangentMode: 0
      - time: 3.20833468
        value: 0
        inSlope: 0
        outSlope: 0
        tangentMode: 0
      - time: 3.25000143
        value: 0
        inSlope: 0
        outSlope: 0
        tangentMode: 0
      - time: 3.29166818
        value: 0
        inSlope: 0
        outSlope: 0
        tangentMode: 0
      - time: 3.33333492
        value: 0
        inSlope: 0
        outSlope: 0
        tangentMode: 0
      - time: 3.37500167
        value: 0
        inSlope: 0
        outSlope: 0
        tangentMode: 0
      - time: 3.41666842
        value: 0
        inSlope: 0
        outSlope: 0
        tangentMode: 0
      - time: 3.45833516
        value: 0
        inSlope: 0
        outSlope: 0
        tangentMode: 0
      - time: 3.50000191
        value: 0
        inSlope: 0
        outSlope: 0
        tangentMode: 0
      - time: 3.54166865
        value: 0
        inSlope: 0
        outSlope: 0
        tangentMode: 0
      - time: 3.5833354
        value: 0
        inSlope: 0
        outSlope: 0
        tangentMode: 0
      - time: 3.62500215
        value: 0
        inSlope: 0
        outSlope: 0
        tangentMode: 0
      - time: 3.66666889
        value: 0
        inSlope: 0
        outSlope: 0
        tangentMode: 0
      - time: 3.70833564
        value: 0
        inSlope: 0
        outSlope: 0
        tangentMode: 0
      - time: 3.75
        value: 0
        inSlope: 0
        outSlope: 0
        tangentMode: 0
      m_PreInfinity: 2
      m_PostInfinity: 2
    attribute: m_LocalRotation.x
    path: 
    classID: 4
    script: {fileID: 0}
  - curve:
      serializedVersion: 2
      m_Curve:
      - time: 0
        value: 0
        inSlope: 0
        outSlope: 0
        tangentMode: 0
      - time: .0416666679
        value: 0
        inSlope: 0
        outSlope: 0
        tangentMode: 0
      - time: .0833333358
        value: 0
        inSlope: 0
        outSlope: 0
        tangentMode: 0
      - time: .125
        value: 0
        inSlope: 0
        outSlope: 0
        tangentMode: 0
      - time: .166666672
        value: 0
        inSlope: 0
        outSlope: 0
        tangentMode: 0
      - time: .208333343
        value: 0
        inSlope: 0
        outSlope: 0
        tangentMode: 0
      - time: .25
        value: 0
        inSlope: 0
        outSlope: 0
        tangentMode: 0
      - time: .291666657
        value: 0
        inSlope: 0
        outSlope: 0
        tangentMode: 0
      - time: .333333313
        value: 0
        inSlope: 0
        outSlope: 0
        tangentMode: 0
      - time: .37499997
        value: 0
        inSlope: 0
        outSlope: 0
        tangentMode: 0
      - time: .416666627
        value: 0
        inSlope: 0
        outSlope: 0
        tangentMode: 0
      - time: .458333284
        value: 0
        inSlope: 0
        outSlope: 0
        tangentMode: 0
      - time: .49999994
        value: 0
        inSlope: 0
        outSlope: 0
        tangentMode: 0
      - time: .541666627
        value: 0
        inSlope: 0
        outSlope: 0
        tangentMode: 0
      - time: .583333313
        value: 0
        inSlope: 0
        outSlope: 0
        tangentMode: 0
      - time: .625
        value: 0
        inSlope: 0
        outSlope: 0
        tangentMode: 0
      - time: .666666687
        value: 0
        inSlope: 0
        outSlope: 0
        tangentMode: 0
      - time: .708333373
        value: 0
        inSlope: 0
        outSlope: 0
        tangentMode: 0
      - time: .75000006
        value: 0
        inSlope: 0
        outSlope: 0
        tangentMode: 0
      - time: .791666746
        value: 0
        inSlope: 0
        outSlope: 0
        tangentMode: 0
      - time: .833333433
        value: 0
        inSlope: 0
        outSlope: 0
        tangentMode: 0
      - time: .875000119
        value: 0
        inSlope: 0
        outSlope: 0
        tangentMode: 0
      - time: .916666806
        value: 0
        inSlope: 0
        outSlope: 0
        tangentMode: 0
      - time: .958333492
        value: 0
        inSlope: 0
        outSlope: 0
        tangentMode: 0
      - time: 1.00000012
        value: 0
        inSlope: 0
        outSlope: 0
        tangentMode: 0
      - time: 1.04166675
        value: 0
        inSlope: 0
        outSlope: 0
        tangentMode: 0
      - time: 1.08333337
        value: 0
        inSlope: 0
        outSlope: 0
        tangentMode: 0
      - time: 1.125
        value: 0
        inSlope: 0
        outSlope: 0
        tangentMode: 0
      - time: 1.16666663
        value: 0
        inSlope: 0
        outSlope: 0
        tangentMode: 0
      - time: 1.20833325
        value: 0
        inSlope: 0
        outSlope: 0
        tangentMode: 0
      - time: 1.24999988
        value: 0
        inSlope: 0
        outSlope: 0
        tangentMode: 0
      - time: 1.29166651
        value: 0
        inSlope: 0
        outSlope: 0
        tangentMode: 0
      - time: 1.33333313
        value: 0
        inSlope: 0
        outSlope: 0
        tangentMode: 0
      - time: 1.37499976
        value: 0
        inSlope: 0
        outSlope: 0
        tangentMode: 0
      - time: 1.41666639
        value: 0
        inSlope: 0
        outSlope: 0
        tangentMode: 0
      - time: 1.45833302
        value: 0
        inSlope: 0
        outSlope: 0
        tangentMode: 0
      - time: 1.49999964
        value: 0
        inSlope: 0
        outSlope: 0
        tangentMode: 0
      - time: 1.54166627
        value: 0
        inSlope: 0
        outSlope: 0
        tangentMode: 0
      - time: 1.5833329
        value: 0
        inSlope: 0
        outSlope: 0
        tangentMode: 0
      - time: 1.62499952
        value: 0
        inSlope: 0
        outSlope: 0
        tangentMode: 0
      - time: 1.66666615
        value: 0
        inSlope: 0
        outSlope: 0
        tangentMode: 0
      - time: 1.70833278
        value: 0
        inSlope: 0
        outSlope: 0
        tangentMode: 0
      - time: 1.7499994
        value: 0
        inSlope: 0
        outSlope: 0
        tangentMode: 0
      - time: 1.79166603
        value: 0
        inSlope: 0
        outSlope: 0
        tangentMode: 0
      - time: 1.83333266
        value: 0
        inSlope: 0
        outSlope: 0
        tangentMode: 0
      - time: 1.87499928
        value: 0
        inSlope: 0
        outSlope: 0
        tangentMode: 0
      - time: 1.91666591
        value: 0
        inSlope: 0
        outSlope: 0
        tangentMode: 0
      - time: 1.95833254
        value: 0
        inSlope: 0
        outSlope: 0
        tangentMode: 0
      - time: 1.99999917
        value: 0
        inSlope: 0
        outSlope: 0
        tangentMode: 0
      - time: 2.04166579
        value: 0
        inSlope: 0
        outSlope: 0
        tangentMode: 0
      - time: 2.08333254
        value: 0
        inSlope: 0
        outSlope: 0
        tangentMode: 0
      - time: 2.12499928
        value: 0
        inSlope: 0
        outSlope: 0
        tangentMode: 0
      - time: 2.16666603
        value: 0
        inSlope: 0
        outSlope: 0
        tangentMode: 0
      - time: 2.20833278
        value: 0
        inSlope: 0
        outSlope: 0
        tangentMode: 0
      - time: 2.24999952
        value: 0
        inSlope: 0
        outSlope: 0
        tangentMode: 0
      - time: 2.29166627
        value: 0
        inSlope: 0
        outSlope: 0
        tangentMode: 0
      - time: 2.33333302
        value: 0
        inSlope: 0
        outSlope: 0
        tangentMode: 0
      - time: 2.37499976
        value: 0
        inSlope: 0
        outSlope: 0
        tangentMode: 0
      - time: 2.41666651
        value: 0
        inSlope: 0
        outSlope: 0
        tangentMode: 0
      - time: 2.45833325
        value: 0
        inSlope: 0
        outSlope: 0
        tangentMode: 0
      - time: 2.5
        value: 0
        inSlope: 0
        outSlope: 0
        tangentMode: 0
      - time: 2.54166675
        value: 0
        inSlope: 0
        outSlope: 0
        tangentMode: 0
      - time: 2.58333349
        value: 0
        inSlope: 0
        outSlope: 0
        tangentMode: 0
      - time: 2.62500024
        value: 0
        inSlope: 0
        outSlope: 0
        tangentMode: 0
      - time: 2.66666698
        value: 0
        inSlope: 0
        outSlope: 0
        tangentMode: 0
      - time: 2.70833373
        value: 0
        inSlope: 0
        outSlope: 0
        tangentMode: 0
      - time: 2.75000048
        value: 0
        inSlope: 0
        outSlope: 0
        tangentMode: 0
      - time: 2.79166722
        value: 0
        inSlope: 0
        outSlope: 0
        tangentMode: 0
      - time: 2.83333397
        value: 0
        inSlope: 0
        outSlope: 0
        tangentMode: 0
      - time: 2.87500072
        value: 0
        inSlope: 0
        outSlope: 0
        tangentMode: 0
      - time: 2.91666746
        value: 0
        inSlope: 0
        outSlope: 0
        tangentMode: 0
      - time: 2.95833421
        value: 0
        inSlope: 0
        outSlope: 0
        tangentMode: 0
      - time: 3.00000095
        value: 0
        inSlope: 0
        outSlope: 0
        tangentMode: 0
      - time: 3.0416677
        value: 0
        inSlope: 0
        outSlope: 0
        tangentMode: 0
      - time: 3.08333445
        value: 0
        inSlope: 0
        outSlope: 0
        tangentMode: 0
      - time: 3.12500119
        value: 0
        inSlope: 0
        outSlope: 0
        tangentMode: 0
      - time: 3.16666794
        value: 0
        inSlope: 0
        outSlope: 0
        tangentMode: 0
      - time: 3.20833468
        value: 0
        inSlope: 0
        outSlope: 0
        tangentMode: 0
      - time: 3.25000143
        value: 0
        inSlope: 0
        outSlope: 0
        tangentMode: 0
      - time: 3.29166818
        value: 0
        inSlope: 0
        outSlope: 0
        tangentMode: 0
      - time: 3.33333492
        value: 0
        inSlope: 0
        outSlope: 0
        tangentMode: 0
      - time: 3.37500167
        value: 0
        inSlope: 0
        outSlope: 0
        tangentMode: 0
      - time: 3.41666842
        value: 0
        inSlope: 0
        outSlope: 0
        tangentMode: 0
      - time: 3.45833516
        value: 0
        inSlope: 0
        outSlope: 0
        tangentMode: 0
      - time: 3.50000191
        value: 0
        inSlope: 0
        outSlope: 0
        tangentMode: 0
      - time: 3.54166865
        value: 0
        inSlope: 0
        outSlope: 0
        tangentMode: 0
      - time: 3.5833354
        value: 0
        inSlope: 0
        outSlope: 0
        tangentMode: 0
      - time: 3.62500215
        value: 0
        inSlope: 0
        outSlope: 0
        tangentMode: 0
      - time: 3.66666889
        value: 0
        inSlope: 0
        outSlope: 0
        tangentMode: 0
      - time: 3.70833564
        value: 0
        inSlope: 0
        outSlope: 0
        tangentMode: 0
      - time: 3.75
        value: 0
        inSlope: 0
        outSlope: 0
        tangentMode: 0
      m_PreInfinity: 2
      m_PostInfinity: 2
    attribute: m_LocalRotation.y
    path: 
    classID: 4
    script: {fileID: 0}
  - curve:
      serializedVersion: 2
      m_Curve:
      - time: 0
        value: .0533736758
        inSlope: -.157899141
        outSlope: -.157899141
        tangentMode: 0
      - time: .0416666679
        value: .0467945449
        inSlope: -.163919091
        outSlope: -.163919091
        tangentMode: 0
      - time: .0833333358
        value: .0397137515
        inSlope: -.175060689
        outSlope: -.175060689
        tangentMode: 0
      - time: .125
        value: .0322061554
        inSlope: -.184403181
        outSlope: -.184403181
        tangentMode: 0
      - time: .166666672
        value: .0243468191
        inSlope: -.191941917
        outSlope: -.191941917
        tangentMode: 0
      - time: .208333343
        value: .0162109938
        inSlope: -.197672725
        outSlope: -.197672725
        tangentMode: 0
      - time: .25
        value: .00787409209
        inSlope: -.201592371
        outSlope: -.201592371
        tangentMode: 0
      - time: .291666657
        value: -.000588367169
        inSlope: -.203698605
        outSlope: -.203698605
        tangentMode: 0
      - time: .333333313
        value: -.00910078734
        inSlope: -.203990251
        outSlope: -.203990251
        tangentMode: 0
      - time: .37499997
        value: -.01758755
        inSlope: -.202467382
        outSlope: -.202467382
        tangentMode: 0
      - time: .416666627
        value: -.0259730648
        inSlope: -.199131623
        outSlope: -.199131623
        tangentMode: 0
      - time: .458333284
        value: -.0341818482
        inSlope: -.193985641
        outSlope: -.193985641
        tangentMode: 0
      - time: .49999994
        value: -.0421385318
        inSlope: -.187032908
        outSlope: -.187032908
        tangentMode: 0
      - time: .541666627
        value: -.0497679263
        inSlope: -.178278118
        outSlope: -.178278118
        tangentMode: 0
      - time: .583333313
        value: -.0569950491
        inSlope: -.167726308
        outSlope: -.167726308
        tangentMode: 0
      - time: .625
        value: -.0637451261
        inSlope: -.155382529
        outSlope: -.155382529
        tangentMode: 0
      - time: .666666687
        value: -.0699435994
        inSlope: -.141252041
        outSlope: -.141252041
        tangentMode: 0
      - time: .708333373
        value: -.0755161345
        inSlope: -.12533921
        outSlope: -.12533921
        tangentMode: 0
      - time: .75000006
        value: -.0803885385
        inSlope: -.107647553
        outSlope: -.107647553
        tangentMode: 0
      - time: .791666746
        value: -.0844867676
        inSlope: -.0881793648
        outSlope: -.0881793648
        tangentMode: 0
      - time: .833333433
        value: -.0877368227
        inSlope: -.0669347644
        outSlope: -.0669347644
        tangentMode: 0
      - time: .875000119
        value: -.0900646672
        inSlope: -.0439120308
        outSlope: -.0439120308
        tangentMode: 0
      - time: .916666806
        value: -.0913961604
        inSlope: -.0191084053
        outSlope: -.0191084053
        tangentMode: 0
      - time: .958333492
        value: -.0916570351
        inSlope: .011255905
        outSlope: .011255905
        tangentMode: 0
      - time: 1.00000012
        value: -.0904581696
        inSlope: .04896136
        outSlope: .04896136
        tangentMode: 0
      - time: 1.04166675
        value: -.0875769258
        inSlope: .0872428641
        outSlope: .0872428641
        tangentMode: 0
      - time: 1.08333337
        value: -.0831879377
        inSlope: .121336281
        outSlope: .121336281
        tangentMode: 0
      - time: 1.125
        value: -.0774655789
        inSlope: .151244104
        outSlope: .151244104
        tangentMode: 0
      - time: 1.16666663
        value: -.0705842748
        inSlope: .176962227
        outSlope: .176962227
        tangentMode: 0
      - time: 1.20833325
        value: -.0627187416
        inSlope: .198481113
        outSlope: .198481113
        tangentMode: 0
      - time: 1.24999988
        value: -.0540441982
        inSlope: .215788245
        outSlope: .215788245
        tangentMode: 0
      - time: 1.29166651
        value: -.044736404
        inSlope: .228870064
        outSlope: .228870064
        tangentMode: 0
      - time: 1.33333313
        value: -.0349717103
        inSlope: .237713411
        outSlope: .237713411
        tangentMode: 0
      - time: 1.37499976
        value: -.0249269716
        inSlope: .242307365
        outSlope: .242307365
        tangentMode: 0
      - time: 1.41666639
        value: -.0147794494
        inSlope: .242644235
        outSlope: .242644235
        tangentMode: 0
      - time: 1.45833302
        value: -.00470663793
        inSlope: .238720775
        outSlope: .238720775
        tangentMode: 0
      - time: 1.49999964
        value: .00511392998
        inSlope: .230537355
        outSlope: .230537355
        tangentMode: 0
      - time: 1.54166627
        value: .0145047912
        inSlope: .218098521
        outSlope: .218098521
        tangentMode: 0
      - time: 1.5833329
        value: .0232887901
        inSlope: .201412037
        outSlope: .201412037
        tangentMode: 0
      - time: 1.62499952
        value: .0312891118
        inSlope: .180487126
        outSlope: .180487126
        tangentMode: 0
      - time: 1.66666615
        value: .0383293703
        inSlope: .155333802
        outSlope: .155333802
        tangentMode: 0
      - time: 1.70833278
        value: .0442335829
        inSlope: .125960544
        outSlope: .125960544
        tangentMode: 0
      - time: 1.7499994
        value: .0488260724
        inSlope: .0923728645
        outSlope: .0923728645
        tangentMode: 0
      - time: 1.79166603
        value: .0519313142
        inSlope: .0545710698
        outSlope: .0545710698
        tangentMode: 0
      - time: 1.83333266
        value: .0533736572
        inSlope: .0150339305
        outSlope: .0150339305
        tangentMode: 0
      - time: 1.87499928
        value: .0531841405
        inSlope: -.0213781651
        outSlope: -.0213781651
        tangentMode: 0
      - time: 1.91666591
        value: .0515921451
        inSlope: -.0535780713
        outSlope: -.0535780713
        tangentMode: 0
      - time: 1.95833254
        value: .0487193055
        inSlope: -.0828606188
        outSlope: -.0828606188
        tangentMode: 0
      - time: 1.99999917
        value: .0446870998
        inSlope: -.109228104
        outSlope: -.109228104
        tangentMode: 0
      - time: 2.04166579
        value: .0396169722
        inSlope: -.132679999
        outSlope: -.132679999
        tangentMode: 0
      - time: 2.08333254
        value: .033630427
        inSlope: -.153213233
        outSlope: -.153213233
        tangentMode: 0
      - time: 2.12499928
        value: .0268491786
        inSlope: -.170823008
        outSlope: -.170823008
        tangentMode: 0
      - time: 2.16666603
        value: .0193951484
        inSlope: -.185503393
        outSlope: -.185503393
        tangentMode: 0
      - time: 2.20833278
        value: .0113905324
        inSlope: -.19724828
        outSlope: -.19724828
        tangentMode: 0
      - time: 2.24999952
        value: .00295776082
        inSlope: -.206052274
        outSlope: -.206052274
        tangentMode: 0
      - time: 2.29166627
        value: -.00578052178
        inSlope: -.211911112
        outSlope: -.211911112
        tangentMode: 0
      - time: 2.33333302
        value: -.0147015313
        inSlope: -.214822471
        outSlope: -.214822471
        tangentMode: 0
      - time: 2.37499976
        value: -.0236824285
        inSlope: -.214785472
        outSlope: -.214785472
        tangentMode: 0
      - time: 2.41666651
        value: -.0326003544
        inSlope: -.211802572
        outSlope: -.211802572
        tangentMode: 0
      - time: 2.45833325
        value: -.041332677
        inSlope: -.205878407
        outSlope: -.205878407
        tangentMode: 0
      - time: 2.5
        value: -.0497569218
        inSlope: -.197018743
        outSlope: -.197018743
        tangentMode: 0
      - time: 2.54166675
        value: -.0577509366
        inSlope: -.185230762
        outSlope: -.185230762
        tangentMode: 0
      - time: 2.58333349
        value: -.0651928484
        inSlope: -.17052348
        outSlope: -.17052348
        tangentMode: 0
      - time: 2.62500024
        value: -.0719612539
        inSlope: -.152905196
        outSlope: -.152905196
        tangentMode: 0
      - time: 2.66666698
        value: -.0779349729
        inSlope: -.132383212
        outSlope: -.132383212
        tangentMode: 0
      - time: 2.70833373
        value: -.0829932094
        inSlope: -.108962744
        outSlope: -.108962744
        tangentMode: 0
      - time: 2.75000048
        value: -.087015219
        inSlope: -.0826464742
        outSlope: -.0826464742
        tangentMode: 0
      - time: 2.79166722
        value: -.0898804292
        inSlope: -.053434059
        outSlope: -.053434059
        tangentMode: 0
      - time: 2.83333397
        value: -.091468066
        inSlope: -.0213191397
        outSlope: -.0213191397
        tangentMode: 0
      - time: 2.87500072
        value: -.0916570276
        inSlope: .0114087546
        outSlope: .0114087546
        tangentMode: 0
      - time: 2.91666746
        value: -.0905173346
        inSlope: .0408003442
        outSlope: .0408003442
        tangentMode: 0
      - time: 2.95833421
        value: -.0882569924
        inSlope: .0666694865
        outSlope: .0666694865
        tangentMode: 0
      - time: 3.00000095
        value: -.0849615335
        inSlope: .0904870108
        outSlope: .0904870108
        tangentMode: 0
      - time: 3.0416677
        value: -.0807163939
        inSlope: .112255156
        outSlope: .112255156
        tangentMode: 0
      - time: 3.08333445
        value: -.0756069198
        inSlope: .131974086
        outSlope: .131974086
        tangentMode: 0
      - time: 3.12500119
        value: -.0697185323
        inSlope: .149640873
        outSlope: .149640873
        tangentMode: 0
      - time: 3.16666794
        value: -.0631368235
        inSlope: .165251434
        outSlope: .165251434
        tangentMode: 0
      - time: 3.20833468
        value: -.0559475534
        inSlope: .178800181
        outSlope: .178800181
        tangentMode: 0
      - time: 3.25000143
        value: -.0482367799
        inSlope: .190280765
        outSlope: .190280765
        tangentMode: 0
      - time: 3.29166818
        value: -.0400907919
        inSlope: .199687004
        outSlope: .199687004
        tangentMode: 0
      - time: 3.33333492
        value: -.0315961652
        inSlope: .207012415
        outSlope: .207012415
        tangentMode: 0
      - time: 3.37500167
        value: -.022839725
        inSlope: .212251946
        outSlope: .212251946
        tangentMode: 0
      - time: 3.41666842
        value: -.0139084691
        inSlope: .215401456
        outSlope: .215401456
        tangentMode: 0
      - time: 3.45833516
        value: -.00488956971
        inSlope: .216457844
        outSlope: .216457844
        tangentMode: 0
      - time: 3.50000191
        value: .00412971945
        inSlope: .215420038
        outSlope: .215420038
        tangentMode: 0
      - time: 3.54166865
        value: .0130621353
        inSlope: .212288707
        outSlope: .212288707
        tangentMode: 0
      - time: 3.5833354
        value: .0218204781
        inSlope: .207065776
        outSlope: .207065776
        tangentMode: 0
      - time: 3.62500215
        value: .0303176492
        inSlope: .199754775
        outSlope: .199754775
        tangentMode: 0
      - time: 3.66666889
        value: .0384667404
        inSlope: .190360397
        outSlope: .190360397
        tangentMode: 0
      - time: 3.70833564
        value: .0461810455
        inSlope: .178887814
        outSlope: .178887814
        tangentMode: 0
      - time: 3.75
        value: .0533736758
        inSlope: .172632679
        outSlope: .172632679
        tangentMode: 0
      m_PreInfinity: 2
      m_PostInfinity: 2
    attribute: m_LocalRotation.z
    path: 
    classID: 4
    script: {fileID: 0}
  - curve:
      serializedVersion: 2
      m_Curve:
      - time: 0
        value: .998574615
        inSlope: .00791788101
        outSlope: .00791788101
        tangentMode: 0
      - time: .0416666679
        value: .998904526
        inSlope: .00763750076
        outSlope: .00763750076
        tangentMode: 0
      - time: .0833333358
        value: .999211073
        inSlope: .00692081451
        outSlope: .00692081451
        tangentMode: 0
      - time: .125
        value: .999481261
        inSlope: .00591015816
        outSlope: .00591015816
        tangentMode: 0
      - time: .166666672
        value: .999703586
        inSlope: .00464773132
        outSlope: .00464773132
        tangentMode: 0
      - time: .208333343
        value: .999868572
        inSlope: .0031850338
        outSlope: .0031850338
        tangentMode: 0
      - time: .25
        value: .999969006
        inSlope: .00157499348
        outSlope: .00157499348
        tangentMode: 0
      - time: .291666657
        value: .999999821
        inSlope: -.000125169783
        outSlope: -.000125169783
        tangentMode: 0
      - time: .333333313
        value: .999958575
        inSlope: -.00185394334
        outSlope: -.00185394334
        tangentMode: 0
      - time: .37499997
        value: .999845326
        inSlope: -.00355124567
        outSlope: -.00355124567
        tangentMode: 0
      - time: .416666627
        value: .999662638
        inSlope: -.00515627954
        outSlope: -.00515627954
        tangentMode: 0
      - time: .458333284
        value: .999415636
        inSlope: -.00661039539
        outSlope: -.00661039539
        tangentMode: 0
      - time: .49999994
        value: .999111772
        inSlope: -.0078577986
        outSlope: -.0078577986
        tangentMode: 0
      - time: .541666627
        value: .998760819
        inSlope: -.00884770975
        outSlope: -.00884770975
        tangentMode: 0
      - time: .583333313
        value: .998374462
        inSlope: -.00953506958
        outSlope: -.00953506958
        tangentMode: 0
      - time: .625
        value: .99796623
        inSlope: -.00988196861
        outSlope: -.00988196861
        tangentMode: 0
      - time: .666666687
        value: .997550964
        inSlope: -.00985979568
        outSlope: -.00985979568
        tangentMode: 0
      - time: .708333373
        value: .99714458
        inSlope: -.00944852363
        outSlope: -.00944852363
        tangentMode: 0
      - time: .75000006
        value: .996763587
        inSlope: -.00863957033
        outSlope: -.00863957033
        tangentMode: 0
      - time: .791666746
        value: .996424615
        inSlope: -.00743865594
        outSlope: -.00743865594
        tangentMode: 0
      - time: .833333433
        value: .996143699
        inSlope: -.005864379
        outSlope: -.005864379
        tangentMode: 0
      - time: .875000119
        value: .995935917
        inSlope: -.00394892506
        outSlope: -.00394892506
        tangentMode: 0
      - time: .916666806
        value: .995814621
        inSlope: -.00174307742
        outSlope: -.00174307742
        tangentMode: 0
      - time: .958333492
        value: .99579066
        inSlope: .00102782389
        outSlope: .00102782389
        tangentMode: 0
      - time: 1.00000012
        value: .995900273
        inSlope: .00440526428
        outSlope: .00440526428
        tangentMode: 0
      - time: 1.04166675
        value: .996157765
        inSlope: .00760317594
        outSlope: .00760317594
        tangentMode: 0
      - time: 1.08333337
        value: .996533871
        inSlope: .0100472067
        outSlope: .0100472067
        tangentMode: 0
      - time: 1.125
        value: .996995032
        inSlope: .0116636865
        outSlope: .0116636865
        tangentMode: 0
      - time: 1.16666663
        value: .997505844
        inSlope: .0124347331
        outSlope: .0124347331
        tangentMode: 0
      - time: 1.20833325
        value: .998031259
        inSlope: .0123925321
        outSlope: .0123925321
        tangentMode: 0
      - time: 1.24999988
        value: .998538554
        inSlope: .0116107576
        outSlope: .0116107576
        tangentMode: 0
      - time: 1.29166651
        value: .998998821
        inSlope: .0101966951
        outSlope: .0101966951
        tangentMode: 0
      - time: 1.33333313
        value: .999388278
        inSlope: .00828553084
        outSlope: .00828553084
        tangentMode: 0
      - time: 1.37499976
        value: .999689281
        inSlope: .00603032671
        outSlope: .00603032671
        tangentMode: 0
      - time: 1.41666639
        value: .999890804
        inSlope: .00359559408
        outSlope: .00359559408
        tangentMode: 0
      - time: 1.45833302
        value: .999988914
        inSlope: .00115370867
        outSlope: .00115370867
        tangentMode: 0
      - time: 1.49999964
        value: .999986947
        inSlope: -.00112938986
        outSlope: -.00112938986
        tangentMode: 0
      - time: 1.54166627
        value: .999894798
        inSlope: -.00309777539
        outSlope: -.00309777539
        tangentMode: 0
      - time: 1.5833329
        value: .999728799
        inSlope: -.00461340416
        outSlope: -.00461340416
        tangentMode: 0
      - time: 1.62499952
        value: .999510348
        inSlope: -.00556397997
        outSlope: -.00556397997
        tangentMode: 0
      - time: 1.66666615
        value: .999265134
        inSlope: -.00586939417
        outSlope: -.00586939417
        tangentMode: 0
      - time: 1.70833278
        value: .999021232
        inSlope: -.00549388491
        outSlope: -.00549388491
        tangentMode: 0
      - time: 1.7499994
        value: .998807311
        inSlope: -.00444674911
        outSlope: -.00444674911
        tangentMode: 0
      - time: 1.79166603
        value: .99865067
        inSlope: -.00279236096
        outSlope: -.00279236096
        tangentMode: 0
      - time: 1.83333266
        value: .998574615
        inSlope: -.000791073602
        outSlope: -.000791073602
        tangentMode: 0
      - time: 1.87499928
        value: .998584747
        inSlope: .00112366781
        outSlope: .00112366781
        tangentMode: 0
      - time: 1.91666591
        value: .998668253
        inSlope: .00273299473
        outSlope: .00273299473
        tangentMode: 0
      - time: 1.95833254
        value: .998812497
        inSlope: .00399327651
        outSlope: .00399327651
        tangentMode: 0
      - time: 1.99999917
        value: .999001026
        inSlope: .00482941139
        outSlope: .00482941139
        tangentMode: 0
      - time: 2.04166579
        value: .999214947
        inSlope: .00519990642
        outSlope: .00519990642
        tangentMode: 0
      - time: 2.08333254
        value: .999434352
        inSlope: .00509475684
        outSlope: .00509475684
        tangentMode: 0
      - time: 2.12499928
        value: .999639511
        inSlope: .00453042146
        outSlope: .00453042146
        tangentMode: 0
      - time: 2.16666603
        value: .999811888
        inSlope: .0035476617
        outSlope: .0035476617
        tangentMode: 0
      - time: 2.20833278
        value: .99993515
        inSlope: .00220512925
        outSlope: .00220512925
        tangentMode: 0
      - time: 2.24999952
        value: .999995649
        inSlope: .00057792553
        outSlope: .00057792553
        tangentMode: 0
      - time: 2.29166627
        value: .999983311
        inSlope: -.00124454265
        outSlope: -.00124454265
        tangentMode: 0
      - time: 2.33333302
        value: .999891937
        inSlope: -.00316500058
        outSlope: -.00316500058
        tangentMode: 0
      - time: 2.37499976
        value: .99971956
        inSlope: -.00508188223
        outSlope: -.00508188223
        tangentMode: 0
      - time: 2.41666651
        value: .999468446
        inSlope: -.00688933022
        outSlope: -.00688933022
        tangentMode: 0
      - time: 2.45833325
        value: .999145448
        inSlope: -.00848506205
        outSlope: -.00848506205
        tangentMode: 0
      - time: 2.5
        value: .998761356
        inSlope: -.00977323577
        outSlope: -.00977323577
        tangentMode: 0
      - time: 2.54166675
        value: .99833101
        inSlope: -.0106637273
        outSlope: -.0106637273
        tangentMode: 0
      - time: 2.58333349
        value: .99787271
        inSlope: -.0110828662
        outSlope: -.0110828662
        tangentMode: 0
      - time: 2.62500024
        value: .997407436
        inSlope: -.0109712873
        outSlope: -.0109712873
        tangentMode: 0
      - time: 2.66666698
        value: .996958435
        inSlope: -.010288219
        outSlope: -.010288219
        tangentMode: 0
      - time: 2.70833373
        value: .996550083
        inSlope: -.00901721232
        outSlope: -.00901721232
        tangentMode: 0
      - time: 2.75000048
        value: .996206999
        inSlope: -.0071704248
        outSlope: -.0071704248
        tangentMode: 0
      - time: 2.79166722
        value: .995952547
        inSlope: -.00478791259
        outSlope: -.00478791259
        tangentMode: 0
      - time: 2.83333397
        value: .995808005
        inSlope: -.00194263097
        outSlope: -.00194263097
        tangentMode: 0
      - time: 2.87500072
        value: .99579066
        inSlope: .00104284089
        outSlope: .00104284089
        tangentMode: 0
      - time: 2.91666746
        value: .995894909
        inSlope: .00368499057
        outSlope: .00368499057
        tangentMode: 0
      - time: 2.95833421
        value: .996097744
        inSlope: .00587152317
        outSlope: .00587152317
        tangentMode: 0
      - time: 3.00000095
        value: .996384203
        inSlope: .00767253386
        outSlope: .00767253386
        tangentMode: 0
      - time: 3.0416677
        value: .996737123
        inSlope: .00904224627
        outSlope: .00904224627
        tangentMode: 0
      - time: 3.08333445
        value: .997137725
        inSlope: .00995491073
        outSlope: .00995491073
        tangentMode: 0
      - time: 3.12500119
        value: .9975667
        inSlope: .01040552
        outSlope: .01040552
        tangentMode: 0
      - time: 3.16666794
        value: .998004854
        inSlope: .0104040895
        outSlope: .0104040895
        tangentMode: 0
      - time: 3.20833468
        value: .998433709
        inSlope: .00997279212
        outSlope: .00997279212
        tangentMode: 0
      - time: 3.25000143
        value: .998835921
        inSlope: .00914810318
        outSlope: .00914810318
        tangentMode: 0
      - time: 3.29166818
        value: .999196053
        inSlope: .00797723234
        outSlope: .00797723234
        tangentMode: 0
      - time: 3.33333492
        value: .999500692
        inSlope: .00651668292
        outSlope: .00651668292
        tangentMode: 0
      - time: 3.37500167
        value: .99973911
        inSlope: .00483082794
        outSlope: .00483082794
        tangentMode: 0
      - time: 3.41666842
        value: .999903262
        inSlope: .00298690237
        outSlope: .00298690237
        tangentMode: 0
      - time: 3.45833516
        value: .999988019
        inSlope: .0010585764
        outSlope: .0010585764
        tangentMode: 0
      - time: 3.50000191
        value: .999991477
        inSlope: -.000879762869
        outSlope: -.000879762869
        tangentMode: 0
      - time: 3.54166865
        value: .999914706
        inSlope: -.00275515998
        outSlope: -.00275515998
        tangentMode: 0
      - time: 3.5833354
        value: .999761879
        inSlope: -.0044925129
        outSlope: -.0044925129
        tangentMode: 0
      - time: 3.62500215
        value: .999540329
        inSlope: -.00602387218
        outSlope: -.00602387218
        tangentMode: 0
      - time: 3.66666889
        value: .999259889
        inSlope: -.00728701148
        outSlope: -.00728701148
        tangentMode: 0
      - time: 3.70833564
        value: .998933077
        inSlope: -.00822352618
        outSlope: -.00822352618
        tangentMode: 0
      - time: 3.75
        value: .998574615
        inSlope: -.00860357191
        outSlope: -.00860357191
        tangentMode: 0
      m_PreInfinity: 2
      m_PostInfinity: 2
    attribute: m_LocalRotation.w
    path: 
    classID: 4
    script: {fileID: 0}
  - curve:
      serializedVersion: 2
      m_Curve:
      - time: 0
        value: 1
        inSlope: 0
        outSlope: 0
        tangentMode: 10
      - time: .0416666679
        value: 1
        inSlope: 0
        outSlope: 0
        tangentMode: 10
      - time: .0833333358
        value: 1
        inSlope: 0
        outSlope: -0
        tangentMode: 17
      - time: 1.83333337
        value: 1
        inSlope: 0
        outSlope: 0
        tangentMode: 5
      - time: 1.875
        value: 1
        inSlope: 0
        outSlope: 0
        tangentMode: 10
      - time: 1.91666663
        value: 1
        inSlope: 0
        outSlope: 0
        tangentMode: 10
      m_PreInfinity: 2
      m_PostInfinity: 2
    attribute: m_LocalScale.x
    path: eye
    classID: 4
    script: {fileID: 0}
  - curve:
      serializedVersion: 2
      m_Curve:
      - time: 0
        value: 1
        inSlope: -22.7505379
        outSlope: -22.7505379
        tangentMode: 10
      - time: .0416666679
        value: .052060917
        inSlope: 0
        outSlope: 0
        tangentMode: 10
      - time: .0833333358
        value: 1
        inSlope: 11.3752689
        outSlope: -0
        tangentMode: 17
      - time: 1.83333337
        value: 1
        inSlope: 0
        outSlope: -11.3752642
        tangentMode: 5
      - time: 1.875
        value: .052060917
        inSlope: 0
        outSlope: 0
        tangentMode: 10
      - time: 1.91666663
        value: 1
        inSlope: 22.7505608
        outSlope: 22.7505608
        tangentMode: 10
      m_PreInfinity: 2
      m_PostInfinity: 2
    attribute: m_LocalScale.y
    path: eye
    classID: 4
    script: {fileID: 0}
  - curve:
      serializedVersion: 2
      m_Curve:
      - time: 0
        value: 1
        inSlope: 0
        outSlope: 0
        tangentMode: 10
      - time: .0416666679
        value: 1
        inSlope: 0
        outSlope: 0
        tangentMode: 10
      - time: .0833333358
        value: 1
        inSlope: 0
        outSlope: -0
        tangentMode: 17
      - time: 1.83333337
        value: 1
        inSlope: 0
        outSlope: 0
        tangentMode: 5
      - time: 1.875
        value: 1
        inSlope: 0
        outSlope: 0
        tangentMode: 10
      - time: 1.91666663
        value: 1
        inSlope: 0
        outSlope: 0
        tangentMode: 10
      m_PreInfinity: 2
      m_PostInfinity: 2
    attribute: m_LocalScale.z
    path: eye
    classID: 4
    script: {fileID: 0}
  m_EulerEditorCurves:
  - curve:
      serializedVersion: 2
      m_Curve:
      - time: 0
        value: 0
        inSlope: 0
        outSlope: 0
        tangentMode: 10
      - time: .958333313
        value: 0
        inSlope: 0
        outSlope: 0
        tangentMode: 10
      - time: 1.83333337
        value: 0
        inSlope: 0
        outSlope: 0
        tangentMode: 10
      - time: 2.875
        value: 0
        inSlope: 0
        outSlope: 0
        tangentMode: 10
      - time: 3.75
        value: 0
        inSlope: 0
        outSlope: 0
        tangentMode: 10
      m_PreInfinity: 2
      m_PostInfinity: 2
    attribute: localEulerAnglesBaked.x
    path: 
    classID: 4
    script: {fileID: 0}
  - curve:
      serializedVersion: 2
      m_Curve:
      - time: 0
        value: 0
        inSlope: 0
        outSlope: 0
        tangentMode: 10
      - time: .958333313
        value: 0
        inSlope: 0
        outSlope: 0
        tangentMode: 10
      - time: 1.83333337
        value: 0
        inSlope: 0
        outSlope: 0
        tangentMode: 10
      - time: 2.875
        value: 0
        inSlope: 0
        outSlope: 0
        tangentMode: 10
      - time: 3.75
        value: 0
        inSlope: 0
        outSlope: 0
        tangentMode: 10
      m_PreInfinity: 2
      m_PostInfinity: 2
    attribute: localEulerAnglesBaked.y
    path: 
    classID: 4
    script: {fileID: 0}
  - curve:
      serializedVersion: 2
      m_Curve:
      - time: 0
        value: 6.11907959
        inSlope: -17.3603096
        outSlope: -17.3603096
        tangentMode: 10
      - time: .958333313
        value: -10.5178833
        inSlope: .826680183
        outSlope: .826680183
        tangentMode: 10
      - time: 1.83333337
        value: 6.11907959
        inSlope: 1.52109241
        outSlope: 1.52109241
        tangentMode: 10
      - time: 2.875
        value: -10.5178833
        inSlope: 1.52109337
        outSlope: 1.52109337
        tangentMode: 10
      - time: 3.75
        value: 6.11907959
        inSlope: 19.0136719
        outSlope: 19.0136719
        tangentMode: 10
      m_PreInfinity: 2
      m_PostInfinity: 2
    attribute: localEulerAnglesBaked.z
    path: 
    classID: 4
    script: {fileID: 0}
  m_HasGenericRootTransform: 1
  m_HasMotionFloatCurves: 0
  m_GenerateMotionCurves: 0
  m_Events: []
