%YAML 1.1
%TAG !u! tag:unity3d.com,2011:
--- !u!74 &7400000
AnimationClip:
  m_ObjectHideFlags: 0
  m_PrefabParentObject: {fileID: 0}
  m_PrefabInternal: {fileID: 0}
  m_Name: anim_char_win
  serializedVersion: 6
  m_Legacy: 0
  m_Compressed: 0
  m_UseHighQualityCurve: 1
  m_RotationCurves: []
  m_CompressedRotationCurves: []
  m_PositionCurves:
  - curve:
      serializedVersion: 2
      m_Curve:
      - time: 0
        value: {x: 0, y: 2.00000572, z: 0}
        inSlope: {x: 0, y: .399988651, z: 0}
        outSlope: {x: 0, y: 0, z: 0}
        tangentMode: 0
      - time: .5
        value: {x: 0, y: 2.20000005, z: 0}
        inSlope: {x: 0, y: 0, z: 0}
        outSlope: {x: 0, y: 0, z: 0}
        tangentMode: 0
      - time: 1
        value: {x: 0, y: 2.00000572, z: 0}
        inSlope: {x: 0, y: -.018209938, z: 0}
        outSlope: {x: 0, y: -.399988651, z: 0}
        tangentMode: 0
      m_PreInfinity: 2
      m_PostInfinity: 2
    path: board_win
  m_ScaleCurves:
  - curve:
      serializedVersion: 2
      m_Curve:
      - time: 0
        value: {x: 1, y: 1, z: 1}
        inSlope: {x: .599999428, y: 0, z: 0}
        outSlope: {x: .00197989144, y: 0, z: 0}
        tangentMode: 0
      - time: .25
        value: {x: 1.04628098, y: 1, z: 1}
        inSlope: {x: -.00178162265, y: 0, z: 0}
        outSlope: {x: -.00183378521, y: 0, z: 0}
        tangentMode: 0
      - time: 1
        value: {x: 1, y: 1, z: 1}
        inSlope: {x: 1.18531864e-06, y: 0, z: 0}
        outSlope: {x: -.0617079735, y: 0, z: 0}
        tangentMode: 0
      m_PreInfinity: 2
      m_PostInfinity: 2
    path: body/Face/mouth
  - curve:
      serializedVersion: 2
      m_Curve:
      - time: 0
        value: {x: 1, y: 1, z: 1}
        inSlope: {x: 0, y: 0, z: 0}
        outSlope: {x: 0, y: 0, z: 0}
        tangentMode: 0
      - time: .899999976
        value: {x: 1, y: 1, z: 1}
        inSlope: {x: 0, y: Infinity, z: 0}
        outSlope: {x: 0, y: -26.9999294, z: 0}
        tangentMode: 0
      - time: .949999988
        value: {x: 1, y: .100000001, z: 1}
        inSlope: {x: 0, y: 0, z: 0}
        outSlope: {x: 0, y: 0, z: 0}
        tangentMode: 0
      - time: 1
        value: {x: 1, y: 1, z: 1}
        inSlope: {x: 0, y: 17.9999962, z: 0}
        outSlope: {x: 0, y: 17.9999962, z: 0}
        tangentMode: 0
      m_PreInfinity: 2
      m_PostInfinity: 2
    path: body/Face/L_eye
  - curve:
      serializedVersion: 2
      m_Curve:
      - time: 0
        value: {x: 1, y: 1, z: 1}
        inSlope: {x: 0, y: 0, z: 0}
        outSlope: {x: 0, y: 0, z: 0}
        tangentMode: 0
      - time: .899999976
        value: {x: 1, y: 1, z: 1}
        inSlope: {x: 0, y: Infinity, z: 0}
        outSlope: {x: 0, y: -26.9999294, z: 0}
        tangentMode: 0
      - time: .949999988
        value: {x: 1, y: .100000001, z: 1}
        inSlope: {x: 0, y: 0, z: 0}
        outSlope: {x: 0, y: 0, z: 0}
        tangentMode: 0
      - time: 1
        value: {x: 1, y: 1, z: 1}
        inSlope: {x: 0, y: 17.9999962, z: 0}
        outSlope: {x: 0, y: 17.9999962, z: 0}
        tangentMode: 0
      m_PreInfinity: 2
      m_PostInfinity: 2
    path: body/Face/R_eye
  m_FloatCurves:
  - curve:
      serializedVersion: 2
      m_Curve:
      - time: 0
        value: 0
        inSlope: Infinity
        outSlope: Infinity
        tangentMode: 31
      - time: 1
        value: 0
        inSlope: Infinity
        outSlope: Infinity
        tangentMode: 31
      m_PreInfinity: 2
      m_PostInfinity: 2
    attribute: m_IsActive
    path: body/Masked Face
    classID: 1
    script: {fileID: 0}
  - curve:
      serializedVersion: 2
      m_Curve:
      - time: 0
        value: 1
        inSlope: Infinity
        outSlope: Infinity
        tangentMode: 31
      - time: 1
        value: 1
        inSlope: Infinity
        outSlope: Infinity
        tangentMode: 31
      m_PreInfinity: 2
      m_PostInfinity: 2
    attribute: m_IsActive
    path: body/Face
    classID: 1
    script: {fileID: 0}
  m_PPtrCurves: []
  m_SampleRate: 60
  m_WrapMode: 0
  m_Bounds:
    m_Center: {x: 0, y: 0, z: 0}
    m_Extent: {x: 0, y: 0, z: 0}
  m_ClipBindingConstant:
    genericBindings:
    - path: 1177274397
      attribute: 1
      script: {fileID: 0}
      classID: 4
      customType: 0
      isPPtrCurve: 0
    - path: 1956939397
      attribute: 3
      script: {fileID: 0}
      classID: 4
      customType: 0
      isPPtrCurve: 0
    - path: 2937575696
      attribute: 3
      script: {fileID: 0}
      classID: 4
      customType: 0
      isPPtrCurve: 0
    - path: 1892151539
      attribute: 3
      script: {fileID: 0}
      classID: 4
      customType: 0
      isPPtrCurve: 0
    - path: 3997639948
      attribute: 2086281974
      script: {fileID: 0}
      classID: 1
      customType: 0
      isPPtrCurve: 0
    - path: 158370036
      attribute: 2086281974
      script: {fileID: 0}
      classID: 1
      customType: 0
      isPPtrCurve: 0
    pptrCurveMapping: []
  m_AnimationClipSettings:
    serializedVersion: 2
    m_StartTime: 0
    m_StopTime: 1
    m_OrientationOffsetY: 0
    m_Level: 0
    m_CycleOffset: 0
    m_LoopTime: 1
    m_LoopBlend: 0
    m_LoopBlendOrientation: 0
    m_LoopBlendPositionY: 0
    m_LoopBlendPositionXZ: 0
    m_KeepOriginalOrientation: 0
    m_KeepOriginalPositionY: 1
    m_KeepOriginalPositionXZ: 0
    m_HeightFromFeet: 0
    m_Mirror: 0
  m_EditorCurves:
  - curve:
      serializedVersion: 2
      m_Curve:
      - time: 0
        value: 1
        inSlope: .599999428
        outSlope: .00197989144
        tangentMode: 1
      - time: .25
        value: 1.04628098
        inSlope: -.00178162265
        outSlope: -.00183378521
        tangentMode: 1
      - time: 1
        value: 1
        inSlope: 1.18531864e-06
        outSlope: -.0617079735
        tangentMode: 1
      m_PreInfinity: 2
      m_PostInfinity: 2
    attribute: m_LocalScale.x
    path: body/Face/mouth
    classID: 4
    script: {fileID: 0}
  - curve:
      serializedVersion: 2
      m_Curve:
      - time: 0
        value: 1
        inSlope: 0
        outSlope: 0
        tangentMode: 10
      m_PreInfinity: 2
      m_PostInfinity: 2
    attribute: m_LocalScale.y
    path: body/Face/mouth
    classID: 4
    script: {fileID: 0}
  - curve:
      serializedVersion: 2
      m_Curve:
      - time: 0
        value: 1
        inSlope: 0
        outSlope: 0
        tangentMode: 10
      m_PreInfinity: 2
      m_PostInfinity: 2
    attribute: m_LocalScale.z
    path: body/Face/mouth
    classID: 4
    script: {fileID: 0}
  - curve:
      serializedVersion: 2
      m_Curve:
      - time: 0
        value: 1
        inSlope: 0
        outSlope: 0
        tangentMode: 10
      m_PreInfinity: 2
      m_PostInfinity: 2
    attribute: m_LocalScale.x
    path: body/Face/L_eye
    classID: 4
    script: {fileID: 0}
  - curve:
      serializedVersion: 2
      m_Curve:
      - time: 0
        value: 1
        inSlope: 0
        outSlope: 0
        tangentMode: 10
      - time: .899999976
        value: 1
        inSlope: Infinity
        outSlope: -26.9999294
        tangentMode: 7
      - time: .949999988
        value: .100000001
        inSlope: 0
        outSlope: 0
        tangentMode: 10
      - time: 1
        value: 1
        inSlope: 17.9999962
        outSlope: 17.9999962
        tangentMode: 10
      m_PreInfinity: 2
      m_PostInfinity: 2
    attribute: m_LocalScale.y
    path: body/Face/L_eye
    classID: 4
    script: {fileID: 0}
  - curve:
      serializedVersion: 2
      m_Curve:
      - time: 0
        value: 1
        inSlope: 0
        outSlope: 0
        tangentMode: 10
      m_PreInfinity: 2
      m_PostInfinity: 2
    attribute: m_LocalScale.z
    path: body/Face/L_eye
    classID: 4
    script: {fileID: 0}
  - curve:
      serializedVersion: 2
      m_Curve:
      - time: 0
        value: 1
        inSlope: 0
        outSlope: 0
        tangentMode: 10
      m_PreInfinity: 2
      m_PostInfinity: 2
    attribute: m_LocalScale.x
    path: body/Face/R_eye
    classID: 4
    script: {fileID: 0}
  - curve:
      serializedVersion: 2
      m_Curve:
      - time: 0
        value: 1
        inSlope: 0
        outSlope: 0
        tangentMode: 10
      - time: .899999976
        value: 1
        inSlope: Infinity
        outSlope: -26.9999294
        tangentMode: 7
      - time: .949999988
        value: .100000001
        inSlope: 0
        outSlope: 0
        tangentMode: 10
      - time: 1
        value: 1
        inSlope: 17.9999962
        outSlope: 17.9999962
        tangentMode: 10
      m_PreInfinity: 2
      m_PostInfinity: 2
    attribute: m_LocalScale.y
    path: body/Face/R_eye
    classID: 4
    script: {fileID: 0}
  - curve:
      serializedVersion: 2
      m_Curve:
      - time: 0
        value: 1
        inSlope: 0
        outSlope: 0
        tangentMode: 10
      m_PreInfinity: 2
      m_PostInfinity: 2
    attribute: m_LocalScale.z
    path: body/Face/R_eye
    classID: 4
    script: {fileID: 0}
  - curve:
      serializedVersion: 2
      m_Curve:
      - time: 0
        value: 0
        inSlope: Infinity
        outSlope: Infinity
        tangentMode: 31
      - time: 1
        value: 0
        inSlope: Infinity
        outSlope: Infinity
        tangentMode: 31
      m_PreInfinity: 2
      m_PostInfinity: 2
    attribute: m_IsActive
    path: body/Masked Face
    classID: 1
    script: {fileID: 0}
  - curve:
      serializedVersion: 2
      m_Curve:
      - time: 0
        value: 1
        inSlope: Infinity
        outSlope: Infinity
        tangentMode: 31
      - time: 1
        value: 1
        inSlope: Infinity
        outSlope: Infinity
        tangentMode: 31
      m_PreInfinity: 2
      m_PostInfinity: 2
    attribute: m_IsActive
    path: body/Face
    classID: 1
    script: {fileID: 0}
  - curve:
      serializedVersion: 2
      m_Curve:
      - time: 0
        value: 0
        inSlope: 0
        outSlope: 0
        tangentMode: 10
      - time: 1
        value: 0
        inSlope: 0
        outSlope: 0
        tangentMode: 10
      m_PreInfinity: 2
      m_PostInfinity: 2
    attribute: m_LocalPosition.x
    path: board_win
    classID: 4
    script: {fileID: 0}
  - curve:
      serializedVersion: 2
      m_Curve:
      - time: 0
        value: 2.00000572
        inSlope: .399988651
        outSlope: 0
        tangentMode: 1
      - time: .5
        value: 2.20000005
        inSlope: 0
        outSlope: 0
        tangentMode: 1
      - time: 1
        value: 2.00000572
        inSlope: -.018209938
        outSlope: -.399988651
        tangentMode: 1
      m_PreInfinity: 2
      m_PostInfinity: 2
    attribute: m_LocalPosition.y
    path: board_win
    classID: 4
    script: {fileID: 0}
  - curve:
      serializedVersion: 2
      m_Curve:
      - time: 0
        value: 0
        inSlope: 0
        outSlope: 0
        tangentMode: 10
      - time: 1
        value: 0
        inSlope: 0
        outSlope: 0
        tangentMode: 10
      m_PreInfinity: 2
      m_PostInfinity: 2
    attribute: m_LocalPosition.z
    path: board_win
    classID: 4
    script: {fileID: 0}
  m_EulerEditorCurves: []
  m_HasGenericRootTransform: 0
  m_HasMotionFloatCurves: 0
  m_GenerateMotionCurves: 0
  m_Events: []
